Feature-based Time Series Forecasting
…
---
background-image: url(img/bananas.jpg)
class: center, top, inverse
---

## Sales data

.pull-left[

Data from June, 2011 to November, 2021

```
# A tsibble: 126 x 2 [1M]
       Time Sales
      <mth> <dbl>
 1 2011 Jun 2317 
 2 2011 Jul 2265 
 3 2011 Aug 2842 
 4 2011 Sep 2485 
 5 2011 Oct 2904 
 6 2011 Nov 2782.
 7 2011 Dec 2587 
 8 2012 Jan 2734.
 9 2012 Feb 2390.
10 2012 Mar 2657 
# … with 116 more rows
```
…
]

---

## Sales data

.pull-left[

Data from June, 2011 to November, 2021

```
# A tsibble: 126 x 2 [1M]
       Time Sales
      <mth> <dbl>
 1 2011 Jun 2317 
 2 2011 Jul 2265 
 3 2011 Aug 2842 
 4 2011 Sep 2485 
 5 2011 Oct 2904 
 6 2011 Nov 2782.
 7 2011 Dec 2587 
 8 2012 Jan 2734.
 9 2012 Feb 2390.
10 2012 Mar 2657 
# … with 116 more rows
```
…
